{
	"components": {
		"examples": {},
		"headers": {},
		"parameters": {},
		"requestBodies": {},
		"responses": {},
		"schemas": {
			"Speed": {
				"properties": {
					"speed": {
						"type": "number",
						"format": "double"
					},
					"angle": {
						"type": "number",
						"format": "double"
					}
				},
				"required": [
					"speed",
					"angle"
				],
				"type": "object",
				"additionalProperties": true
			}
		},
		"securitySchemes": {}
	},
	"info": {
		"title": "agv-local-backend",
		"version": "1.0.0",
		"description": "agv-local-backend",
		"license": {
			"name": "ISC"
		},
		"contact": {}
	},
	"openapi": "3.0.0",
	"paths": {
		"/joystick": {
			"post": {
				"operationId": "SetSpeed",
				"responses": {
					"204": {
						"description": "No content"
					}
				},
				"security": [],
				"parameters": [],
				"requestBody": {
					"required": true,
					"content": {
						"application/json": {
							"schema": {
								"$ref": "#/components/schemas/Speed"
							}
						}
					}
				}
			}
		}
	},
	"servers": [
		{
			"url": "/"
		}
	]
}